{
  "conditions": [
    {
      "type": "forge:not",
      "value": {
        "type": "powercrops:zero_max_energy"
      }
    }
  ],
  "type": "minecraft:crafting_shaped",
  "pattern": [
    "RRR",
    "RSR",
    "RRR"
  ],
  "key": {
    "S": {
      "item": "minecraft:wheat_seeds"
    },
    "R": {
      "item": "minecraft:redstone"
    }
  },
  "result": {
    "item": "powercrops:a_full_commitment_s_what_i_m_thinking_of"
  }
}